<svg width="46" height="50" viewBox="0 0 46 50" fill="none" xmlns="http://www.w3.org/2000/svg">
<g clip-path="url(#clip0_3437_31289)">
<path d="M22.7 42.4C26.5963 42.4 30.4051 41.2446 33.6448 39.08C36.8844 36.9153 39.4094 33.8386 40.9004 30.2389C42.3915 26.6392 42.7816 22.6782 42.0215 18.8567C41.2614 15.0353 39.3851 11.5251 36.63 8.77001C33.8749 6.01491 30.3647 4.13867 26.5433 3.37854C22.7219 2.61841 18.7609 3.00854 15.1612 4.49958C11.5615 5.99063 8.48474 8.51563 6.32007 11.7553C4.15541 14.9949 3.00002 18.8037 3.00002 22.7C2.99607 25.2882 3.50293 27.8516 4.49155 30.2435C5.48017 32.6354 6.93111 34.8087 8.76121 36.6388C10.5913 38.4689 12.7646 39.9199 15.1565 40.9085C17.5484 41.8971 20.1119 42.404 22.7 42.4V42.4Z" fill="#FF2F3E"/>
<path d="M22.7 45.4C18.2104 45.4 13.8216 44.0687 10.0886 41.5744C6.35557 39.0801 3.44605 35.5348 1.72794 31.3869C0.0098356 27.239 -0.4397 22.6748 0.436184 18.2715C1.31207 13.8681 3.47403 9.82334 6.64869 6.64869C9.82334 3.47403 13.8681 1.31207 18.2715 0.436184C22.6748 -0.4397 27.239 0.0098356 31.3869 1.72794C35.5348 3.44605 39.0801 6.35557 41.5744 10.0886C44.0687 13.8216 45.4 18.2104 45.4 22.7C45.3947 28.7188 43.0014 34.4896 38.7455 38.7455C34.4896 43.0014 28.7188 45.3947 22.7 45.4V45.4ZM22.7 6.00001C19.3971 6.00001 16.1683 6.97945 13.422 8.81447C10.6757 10.6495 8.53521 13.2577 7.27122 16.3092C6.00724 19.3607 5.67652 22.7185 6.3209 25.958C6.96527 29.1975 8.55579 32.1732 10.8913 34.5087C13.2269 36.8442 16.2025 38.4348 19.442 39.0791C22.6815 39.7235 26.0393 39.3928 29.0908 38.1288C32.1423 36.8648 34.7505 34.7243 36.5856 31.978C38.4206 29.2317 39.4 26.003 39.4 22.7C39.3947 18.2725 37.6336 14.0279 34.5028 10.8972C31.3721 7.76646 27.1275 6.0053 22.7 6.00001V6.00001Z" fill="#141D2B"/>
<path d="M19.8 20.1999C19.7072 20.1071 19.655 19.9812 19.655 19.8499C19.655 19.7187 19.7072 19.5928 19.8 19.4999C19.8928 19.4071 20.0187 19.355 20.15 19.355C20.2813 19.355 20.4072 19.4071 20.5 19.4999L25.5 24.4999C25.574 24.5494 25.661 24.5758 25.75 24.5758C25.839 24.5758 25.926 24.5494 26 24.4999L27.4 23.0999C27.4395 23.0621 27.4869 23.0336 27.5388 23.0163C27.5907 22.999 27.6457 22.9934 27.7 22.9999C27.8392 23.0392 27.9863 23.0414 28.1266 23.0063C28.2669 22.9712 28.3956 22.9001 28.5 22.7999C28.5814 22.6766 28.6161 22.5281 28.5978 22.3815C28.5795 22.2348 28.5093 22.0995 28.4 21.9999C28.2922 21.8817 28.161 21.7872 28.0146 21.7226C27.8682 21.6579 27.71 21.6245 27.55 21.6245C27.39 21.6245 27.2318 21.6579 27.0854 21.7226C26.939 21.7872 26.8078 21.8817 26.7 21.9999L26.4 22.2999C26.3 22.3999 26.3 22.3999 26.2 22.3999C26.1 22.3999 26.1 22.3999 26 22.2999L20 15.6999C19.823 15.5594 19.6186 15.4573 19.4 15.3999L16.2 15.0999C16.1065 15.0876 16.0114 15.0995 15.9238 15.1346C15.8363 15.1696 15.7592 15.2265 15.7 15.2999C15.6 15.4999 15.5 15.5999 15.5 15.7999L15.8 18.9999C15.7967 19.1169 15.8223 19.2329 15.8747 19.3376C15.927 19.4423 16.0044 19.5324 16.1 19.5999L22.7 25.5999C22.8 25.5999 22.8 25.6999 22.8 25.7999C22.8 25.8999 22.8 25.8999 22.7 25.9999L22.4 26.2999C22.2817 26.4077 22.1873 26.539 22.1226 26.6853C22.058 26.8317 22.0246 26.9899 22.0246 27.1499C22.0246 27.3099 22.058 27.4682 22.1226 27.6145C22.1873 27.7609 22.2817 27.8922 22.4 27.9999C22.5116 28.0879 22.6451 28.1437 22.7861 28.1613C22.9271 28.1789 23.0702 28.1577 23.2 28.0999C23.3113 28.0031 23.3901 27.8745 23.4259 27.7314C23.4616 27.5883 23.4526 27.4377 23.4 27.2999C23.3935 27.2456 23.399 27.1906 23.4163 27.1387C23.4336 27.0868 23.4622 27.0394 23.5 26.9999L24.9 25.5999C24.9494 25.5259 24.9758 25.4389 24.9758 25.3499C24.9758 25.2609 24.9494 25.1739 24.9 25.0999L19.8 20.1999Z" fill="white"/>
<path d="M29.5001 27.8001L26.9001 25.2001C26.8261 25.1507 26.7391 25.1243 26.6501 25.1243C26.5611 25.1243 26.4741 25.1507 26.4001 25.2001L25.4001 26.2001C25.3506 26.2741 25.3242 26.3611 25.3242 26.4501C25.3242 26.5391 25.3506 26.6261 25.4001 26.7001L28.0001 29.3001C28.1405 29.4074 28.3036 29.4812 28.4769 29.5159C28.6502 29.5505 28.8291 29.5451 29.0001 29.5001C29.1943 29.4538 29.372 29.3545 29.5132 29.2132C29.6544 29.072 29.7537 28.8944 29.8001 28.7001C30.0001 28.5001 29.9001 28.2001 29.5001 27.8001Z" fill="white"/>
<path fill-rule="evenodd" clip-rule="evenodd" d="M11.2105 38.4598L13.3005 35.4598C13.3893 35.3252 13.5038 35.2096 13.6375 35.1196C13.7713 35.0296 13.9215 34.9669 14.0796 34.9353C14.2377 34.9037 14.4004 34.9037 14.5585 34.9354C14.7166 34.9671 14.8668 35.0297 15.0005 35.1198C15.1229 35.2021 15.2282 35.3074 15.3105 35.4298L17.4005 38.4298C17.5372 38.6339 17.6102 38.8741 17.6102 39.1198C17.6102 39.3655 17.5372 39.6057 17.4005 39.8098L15.3105 42.8098C15.1266 43.0739 14.8459 43.2547 14.5293 43.3128C14.2128 43.3708 13.8861 43.3015 13.6205 43.1198C13.4981 43.0375 13.3928 42.9322 13.3105 42.8098L11.2205 39.8098C11.0886 39.6098 11.0174 39.3759 11.0157 39.1363C11.0139 38.8967 11.0816 38.6617 11.2105 38.4598V38.4598Z" fill="white"/>
<path d="M14.3 44.3999C13.8358 44.4039 13.3817 44.2642 13 43.9999C12.7812 43.8411 12.5889 43.6487 12.43 43.4299L10.35 40.4299C10.0959 40.0589 9.95996 39.6196 9.95996 39.1699C9.95996 38.7202 10.0959 38.281 10.35 37.9099L12.43 34.9099C12.7673 34.4285 13.2803 34.0989 13.8583 33.9923C14.4364 33.8856 15.0332 34.0105 15.52 34.3399C15.7388 34.4987 15.9312 34.6911 16.09 34.9099L18.17 37.9099C18.4246 38.2789 18.561 38.7166 18.561 39.1649C18.561 39.6132 18.4246 40.0509 18.17 40.4199L16.09 43.4199C15.8906 43.7133 15.6243 43.9552 15.3131 44.1256C15.0019 44.296 14.6547 44.39 14.3 44.3999ZM14.3 35.8999C14.2714 35.9033 14.2439 35.9132 14.2197 35.9288C14.1954 35.9444 14.175 35.9653 14.16 35.9899L12 38.9999C11.9755 39.0351 11.9624 39.077 11.9624 39.1199C11.9624 39.1628 11.9755 39.2047 12 39.2399L14.08 42.2399C14.24 42.3699 14.37 42.3399 14.44 42.2399L16.52 39.2399C16.5446 39.2047 16.5577 39.1628 16.5577 39.1199C16.5577 39.077 16.5446 39.0351 16.52 38.9999L14.44 35.9999C14.4011 35.9525 14.3488 35.9176 14.29 35.8999H14.3Z" fill="#141D2B"/>
<path fill-rule="evenodd" clip-rule="evenodd" d="M27.9997 38.46L30.0897 35.46C30.2736 35.1959 30.5544 35.0151 30.8709 34.957C31.1875 34.899 31.5141 34.9683 31.7797 35.15C31.9022 35.2323 32.0074 35.3376 32.0897 35.46L34.1797 38.46C34.3165 38.6641 34.3895 38.9043 34.3895 39.15C34.3895 39.3957 34.3165 39.6359 34.1797 39.84L32.0897 42.84C31.9059 43.1041 31.6251 43.2849 31.3086 43.343C30.992 43.401 30.6654 43.3317 30.3997 43.15C30.2773 43.0677 30.1721 42.9624 30.0897 42.84L27.9997 39.84C27.863 39.6359 27.79 39.3957 27.79 39.15C27.79 38.9043 27.863 38.6641 27.9997 38.46V38.46Z" fill="white"/>
<path d="M31.0999 44.4C30.6493 44.3959 30.2104 44.2565 29.8399 44C29.6211 43.8412 29.4287 43.6488 29.2699 43.43L27.1899 40.43C26.9358 40.059 26.7998 39.6198 26.7998 39.17C26.7998 38.7203 26.9358 38.2811 27.1899 37.91L29.2699 34.91C29.6071 34.4273 30.1208 34.0968 30.6999 33.99C30.9844 33.9364 31.2767 33.9397 31.5599 33.9998C31.8432 34.0599 32.1116 34.1755 32.3499 34.34C32.5767 34.4967 32.7732 34.6932 32.9299 34.92L35.0099 37.92C35.2645 38.289 35.4008 38.7267 35.4008 39.175C35.4008 39.6233 35.2645 40.061 35.0099 40.43L32.9299 43.43C32.7255 43.7271 32.4523 43.9704 32.1337 44.1392C31.8151 44.3081 31.4605 44.3976 31.0999 44.4V44.4ZM31.0999 35.9C31.0713 35.9034 31.0438 35.9133 31.0195 35.9289C30.9953 35.9445 30.9749 35.9654 30.9599 35.99L28.8799 38.99C28.8554 39.0253 28.8422 39.0671 28.8422 39.11C28.8422 39.1529 28.8554 39.1948 28.8799 39.23L30.9599 42.23C31.1199 42.36 31.2499 42.33 31.3199 42.23L33.3999 39.23C33.4244 39.1948 33.4375 39.1529 33.4375 39.11C33.4375 39.0671 33.4244 39.0253 33.3999 38.99L31.3199 35.99C31.2898 35.9601 31.2538 35.9366 31.2142 35.9211C31.1747 35.9057 31.1323 35.8985 31.0899 35.9H31.0999Z" fill="#141D2B"/>
<path fill-rule="evenodd" clip-rule="evenodd" d="M17.9998 41.16L21.1598 36.56C21.297 36.361 21.4721 36.191 21.675 36.0597C21.8779 35.9284 22.1047 35.8383 22.3425 35.7947C22.5802 35.751 22.8242 35.7546 23.0605 35.8053C23.2969 35.856 23.5209 35.9527 23.7198 36.09C23.9052 36.2185 24.0675 36.3774 24.1998 36.56L27.3598 41.16C27.5697 41.4663 27.6819 41.8288 27.6819 42.2C27.6819 42.5713 27.5697 42.9338 27.3598 43.24L24.1998 47.84C24.0627 48.039 23.8876 48.209 23.6847 48.3404C23.4818 48.4717 23.255 48.5618 23.0172 48.6054C22.7795 48.6491 22.5355 48.6454 22.2991 48.5947C22.0628 48.5441 21.8388 48.4473 21.6398 48.31C21.4545 48.1815 21.2922 48.0226 21.1598 47.84L17.9998 43.24C17.79 42.9338 17.6777 42.5713 17.6777 42.2C17.6777 41.8288 17.79 41.4663 17.9998 41.16V41.16Z" fill="white"/>
<path d="M22.7002 49.6301C22.2385 49.6363 21.7826 49.5271 21.374 49.3122C20.9653 49.0974 20.6168 48.7839 20.3602 48.4001L17.2002 43.8101C16.8782 43.3349 16.7061 42.7741 16.7061 42.2001C16.7061 41.6261 16.8782 41.0653 17.2002 40.5901L20.3602 36.0001C20.6196 35.6247 20.9662 35.3178 21.3703 35.1059C21.7744 34.8939 22.2239 34.7832 22.6802 34.7832C23.1365 34.7832 23.586 34.8939 23.9901 35.1059C24.3942 35.3178 24.7408 35.6247 25.0002 36.0001L28.1602 40.5901C28.4822 41.0653 28.6543 41.6261 28.6543 42.2001C28.6543 42.7741 28.4822 43.3349 28.1602 43.8101L25.0002 48.4001C24.743 48.7739 24.3999 49.0807 23.9997 49.2947C23.5996 49.5087 23.1539 49.6237 22.7002 49.6301V49.6301ZM18.8502 41.7201C18.743 41.8648 18.6852 42.04 18.6852 42.2201C18.6852 42.4001 18.743 42.5754 18.8502 42.7201L22.0002 47.2701C22.054 47.3573 22.1255 47.4323 22.2102 47.4901C22.3952 47.6139 22.6213 47.6603 22.8401 47.6191C23.0589 47.578 23.2528 47.4527 23.3802 47.2701L26.5402 42.6801C26.6473 42.5354 26.7052 42.3601 26.7052 42.1801C26.7052 42 26.6473 41.8248 26.5402 41.6801L23.3802 37.0901C23.2923 36.9533 23.1649 36.8465 23.0148 36.784C22.8647 36.7215 22.6992 36.7062 22.5402 36.7401C22.4308 36.7579 22.3264 36.7981 22.2334 36.8584C22.1405 36.9186 22.061 36.9975 22.0002 37.0901L18.8502 41.7201Z" fill="#141D2B"/>
</g>
<defs>
<clipPath id="clip0_3437_31289">
<rect width="45.4" height="49.63" fill="white"/>
</clipPath>
</defs>
</svg>
